C:\STAF_Selenium\sts_framework\src\test\java\testExcecutionData\CheckDriverConn.java
C:\STAF_Selenium\sts_framework\src\test\java\testExcecutionData\XMLFilePOStTest.java
C:\STAF_Selenium\sts_framework\src\test\java\testExcecutionData\DatabasequesryTest.java
